<svg width="1047" height="646" viewBox="0 0 1047 646" fill="none" xmlns="http://www.w3.org/2000/svg">
<path d="M519.045 39.9628C748.382 -34.3322 1137.18 -30.7922 1023.69 380.429C927.754 728.002 230.751 -30.4556 35.8897 317.115C-51.8234 473.568 35.8897 770.638 299.202 582.64" stroke="#007370" stroke-width="5" stroke-dasharray="10 10"/>
</svg>
