<svg width="456" height="421" viewBox="0 0 456 421" fill="none" xmlns="http://www.w3.org/2000/svg">
<path d="M2 74.2866C152.227 5.65708 513.884 -69.0376 444.178 140.068C424.67 198.588 353.141 313.493 301.12 419" stroke="#007370" stroke-width="5" stroke-dasharray="10 10"/>
</svg>
